<?xml version="1.0" encoding="utf-8"?>
<!-- Generator: Adobe Illustrator 20.1.0, SVG Export Plug-In . SVG Version: 6.00 Build 0)  -->
<svg version="1.1" id="Layer_1" xmlns="http://www.w3.org/2000/svg" xmlns:xlink="http://www.w3.org/1999/xlink" x="0px" y="0px"
	 viewBox="0 0 432 432" style="enable-background:new 0 0 432 432;" xml:space="preserve">
<style type="text/css">
	.st0{fill:#FFD87C;}
	.st1{fill:#FFFFFF;}
	.st2{fill:#FCF4B2;}
	.st3{fill:#95BBE4;}
	.st4{fill:#F79D85;}
	.st5{fill:#F58E98;}
</style>
<rect x="-270.9" y="-11" class="st0" width="771.9" height="771.9"/>
<rect x="-329.8" y="132.8" class="st1" width="953.5" height="75.7"/>
<rect x="190.7" y="208.5" class="st2" width="53.8" height="704.6"/>
<rect x="147" y="-81.6" class="st3" width="43.7" height="214.4"/>
<rect x="244.5" y="-125.3" class="st4" width="142.9" height="258.1"/>
<rect x="387.5" y="-219.5" class="st5" width="16" height="352.3"/>
<rect x="244.5" y="208.5" class="st4" width="101.7" height="17.7"/>
<rect x="403.4" y="208.5" class="st4" width="101.7" height="17.7"/>
</svg>
